{
  "project_info": {
    "project_number": "68661263046",
    "firebase_url": "https://dolifeapp.firebaseio.com",
    "project_id": "dolifeapp",
    "storage_bucket": "dolifeapp.appspot.com"
  },
  "client": [
    {
      "client_info": {
        "mobilesdk_app_id": "1:68661263046:android:1d917c6d90973529",
        "android_client_info": {
          "package_name": "com.example.hnf.dolifeapp"
        }
      },
      "oauth_client": [
        {
          "client_id": "68661263046-f8d5bago9rfc8mb9us6to440c2vis030.apps.googleusercontent.com",
          "client_type": 1,
          "android_info": {
            "package_name": "com.example.hnf.dolifeapp",
            "certificate_hash": "b402085d1fb9df293a8d1f373c4e91cd9d3118be"
          }
        },
        {
          "client_id": "68661263046-c4f62qn8pv2m0sqjjg0dtpc9pddk65ja.apps.googleusercontent.com",
          "client_type": 3
        }
      ],
      "api_key": [
        {
          "current_key": "AIzaSyAz5wrM1I68GBHJFhHLLvNRgxy9UDnVLq4"
        }
      ],
      "services": {
        "analytics_service": {
          "status": 1
        },
        "appinvite_service": {
          "status": 2,
          "other_platform_oauth_client": [
            {
              "client_id": "68661263046-c4f62qn8pv2m0sqjjg0dtpc9pddk65ja.apps.googleusercontent.com",
              "client_type": 3
            }
          ]
        },
        "ads_service": {
          "status": 2
        }
      }
    }
  ],
  "configuration_version": "1"
}